{
	"info": {
		"_postman_id": "00fbe619-147f-4129-b5e8-ce930b7f0b21",
		"name": "Customer API",
		"schema": "https://schema.getpostman.com/json/collection/v2.1.0/collection.json"
	},
	"item": [
		{
			"name": "Get all the vendor listed",
			"request": {
				"method": "GET",
				"header": [],
				"body": {
					"mode": "raw",
					"raw": ""
				},
				"url": {
					"raw": "http://127.0.0.1:8000/api/customer/vendors/",
					"protocol": "http",
					"host": [
						"127",
						"0",
						"0",
						"1"
					],
					"port": "8000",
					"path": [
						"api",
						"customer",
						"vendors",
						""
					]
				},
				"description": "http://127.0.0.1:8000/api/customer/vendors/"
			},
			"response": []
		},
		{
			"name": "Get all meals by \"hotel id\"",
			"request": {
				"method": "GET",
				"header": [],
				"body": {
					"mode": "raw",
					"raw": ""
				},
				"url": {
					"raw": "http://127.0.0.1:8000/api/customer/meals/1",
					"protocol": "http",
					"host": [
						"127",
						"0",
						"0",
						"1"
					],
					"port": "8000",
					"path": [
						"api",
						"customer",
						"meals",
						"1"
					]
				},
				"description": "\n\nhttp://127.0.0.1:8000/api/customer/meals/1"
			},
			"response": []
		},
		{
			"name": "Add new order by the customer",
			"request": {
				"method": "POST",
				"header": [],
				"body": {
					"mode": "formdata",
					"formdata": [
						{
							"key": "access_token",
							"value": "rHqa1An7Ii1xsIPX7UcKxOY2nK0l5o",
							"type": "text"
						},
						{
							"key": "vendor_id",
							"value": "1",
							"type": "text"
						},
						{
							"key": "address",
							"value": "316 Hillsborough",
							"type": "text"
						},
						{
							"key": "order_details",
							"value": "[{\"meal_id\": 1, \"quantity\": 1},{\"meal_id\": 2, \"quantity\": 1}]",
							"type": "text"
						}
					]
				},
				"url": {
					"raw": "http://localhost:8000/api/customer/order/add/",
					"protocol": "http",
					"host": [
						"localhost"
					],
					"port": "8000",
					"path": [
						"api",
						"customer",
						"order",
						"add",
						""
					]
				},
				"description": "http://localhost:8000/api/customer/order/add/"
			},
			"response": []
		},
		{
			"name": "Customer check latest order",
			"request": {
				"method": "GET",
				"header": [],
				"body": {
					"mode": "raw",
					"raw": ""
				},
				"url": {
					"raw": "http://localhost:8000/api/customer/order/latest?access_token=rHqa1An7Ii1xsIPX7UcKxOY2nK0l5o",
					"protocol": "http",
					"host": [
						"localhost"
					],
					"port": "8000",
					"path": [
						"api",
						"customer",
						"order",
						"latest"
					],
					"query": [
						{
							"key": "access_token",
							"value": "rHqa1An7Ii1xsIPX7UcKxOY2nK0l5o"
						}
					]
				},
				"description": "http://localhost:8000/api/customer/order/latest?access_token=rHqa1An7Ii1xsIPX7UcKxOY2nK0l5o"
			},
			"response": []
		}
	]
}